
<svg width="20px" height="19px" viewBox="0 0 20 19" version="1.1" xmlns="http://www.w3.org/2000/svg" xmlns:xlink="http://www.w3.org/1999/xlink">
  
    <g id="Symbols" stroke="none" stroke-width="1" fill="none" fill-rule="evenodd">
        <g id="star-placeholder" fill="#D0D0D0" fill-rule="nonzero">
            <g id="bookmark-star">
                <path d="M9.30683626,0.429321683 C9.43757302,0.166576813 9.70681309,0 10.0010787,0 C10.2953443,0 10.5650158,0.166576813 10.6953211,0.429321683 L13.1853603,5.45023877 C13.2979751,5.67734994 13.5163012,5.83491099 13.7687138,5.87140334 L19.3373234,6.67638149 C19.6294316,6.71845502 19.8710573,6.92195349 19.9620984,7.20058327 C20.0531395,7.47921304 19.9772,7.78574872 19.766209,7.99010584 L15.7371003,11.8986504 C15.5545866,12.075531 15.4713121,12.3305481 15.514028,12.5804133 L16.4649978,18.0993435 C16.5141859,18.3887063 16.3955304,18.6806451 16.1564935,18.8532324 C15.9178881,19.0249611 15.6024803,19.0477151 15.3410068,18.9120495 L10.3600654,16.3060668 C10.1348358,16.1880034 9.86516423,16.1880034 9.63950308,16.3060668 L4.65856175,18.9116201 C4.39795117,19.0477151 4.08168038,19.0253904 3.84307499,18.8532324 C3.60446961,18.6810744 3.48538265,18.3887063 3.53500222,18.0993435 L4.48597196,12.5804133 C4.52911941,12.3305481 4.44541336,12.075531 4.26289966,11.8986504 L0.233791019,7.99010584 C0.0228000007,7.7853194 -0.0531395067,7.47921304 0.0379016073,7.20058327 C0.128942721,6.92195349 0.370999901,6.71845502 0.66310812,6.67638149 L6.23258063,5.87140334 C6.48456172,5.83491099 6.70288781,5.67734994 6.81550264,5.44980944 L9.30683626,0.429321683 Z" id="Shape"></path>
            </g>
        </g>
    </g>
</svg>