
<svg width="90px" height="89px" viewBox="0 0 90 89" version="1.1" xmlns="http://www.w3.org/2000/svg" xmlns:xlink="http://www.w3.org/1999/xlink">
    <g id="Main-pages---desktop-view" stroke="none" stroke-width="1" fill="none" fill-rule="evenodd">
        <g id="Open-Product-Page-new---Review-tab" transform="translate(-183.000000, -1508.000000)" fill-rule="nonzero">
            <g id="user_level1_alt" transform="translate(183.000000, 1508.000000)">
                <ellipse id="Oval" fill="#FD7E23" cx="44.494382" cy="44" rx="44.494382" ry="44"></ellipse>
                <path d="M74.7231807,76.7535461 C70.0331971,74.165378 63.9049518,71.0722015 61.7162927,71.1984536 L61.7162927,69.115294 C65.0305478,67.0952603 68.3448029,63.4339494 70.9086607,56.9319661 C70.9086607,56.9319661 72.0967899,56.9319661 72.9722535,56.9319661 C76.4115748,56.9319661 78.8503663,53.1444031 77.4746377,49.7355963 C76.8493066,48.1574451 75.7862436,47.3368064 74.91078,46.9580501 L76.1614423,46.9580501 C76.1614423,46.9580501 76.1614423,46.9580501 76.1614423,46.9580501 C76.6617073,46.9580501 77.0994391,46.5161677 77.0994391,46.0111593 C77.0994391,45.5061509 76.6617073,45.0642686 76.1614423,45.0642686 L74.5981145,45.0642686 C75.0358463,43.9279996 75.8487768,41.5292097 76.2865086,40.1404366 C76.8493066,38.2466551 80.0384955,29.1565037 70.5959951,19.0563356 C63.2170875,11.1655792 50.5228651,13.2487389 50.5228651,13.2487389 C50.5228651,13.2487389 37.8286428,11.1655792 30.4497352,19.0563356 C21.0072348,29.1565037 24.1964237,38.183529 24.7592217,40.1404366 C25.3220198,42.0342181 26.6977483,45.7586551 26.6977483,45.7586551 L27.4481457,45.1905207 C27.6982781,45.5061509 27.9484106,45.7586551 28.3236093,45.7586551 L29.5742716,44.8748904 C29.5742716,44.8748904 29.5742716,44.7486383 29.6368047,44.433008 C29.4492054,48.2836972 30.0745365,52.5131426 31.8254637,56.9319661 C34.3893215,63.4339494 37.8286428,67.0952603 41.205431,69.115294 L41.0803648,71.1353276 C40.0173018,71.1353276 39.016772,71.7665881 38.5790402,72.839731 C38.516507,72.9659831 38.516507,73.0922352 38.4539739,73.2816133 C38.1413084,73.5341175 37.8911759,73.7234957 37.5785103,73.9759999 C37.6410434,73.7866217 37.6410434,73.7234957 37.6410434,73.7234957 L28.5112086,78.5210755 L23.258427,81.2986218 C23.258427,81.2986218 26.6977483,84.3917983 31.95053,87.1693445 C35.9526493,88.3687395 40.142368,89 44.5196861,89 C56.2133786,89 66.8440082,84.3286722 74.7231807,76.7535461 Z" id="Shape" fill="#DB5F07"></path>
                <path d="M42.9864042,74.5948147 C44.3701935,72.6232397 45.0620882,70.9503882 46.5716765,72.8024738 C48.0812648,74.6545594 48.961858,75.0130275 48.1441643,77.5223047 C47.3264706,80.0315819 47.3264706,79.9120925 47.5780687,81.4057099 C47.8296668,82.959072 50.9117429,86.4242643 48.836059,86.6632431 C46.760375,86.9022219 43.7411984,87.081456 42.4832081,86.9619666 C41.2252178,86.8424772 41.1623183,86.4242643 42.105811,84.6916681 C42.9864042,82.959072 44.5588921,80.9277523 43.3009018,78.7769433 C42.105811,76.5663896 41.728414,76.3871555 42.9864042,74.5948147 Z" id="Shape" fill="#FD6A5D"></path>
                <path d="M51.6253267,75.1740198 C51.9436819,74.917157 50.0335508,76.5225492 49.2058274,79.2196082 C48.441775,81.9166671 48.2507619,82.4303926 49.0784853,84.6779417 C49.9062088,86.9254908 49.9062088,89.2372556 51.6253267,88.9803928 C53.3444446,88.7235301 57.1010356,89.1730399 60.6029425,84.8063731 C64.1685203,80.3754906 64.3595335,73.054902 62.7040866,72.2200981 C61.0486397,71.3852941 59.1385087,71 59.1385087,71 L51.6253267,75.1740198 Z" id="Shape" fill="#FFFFFF"></path>
                <path d="M53.5955056,88 C54.934353,85.6043165 55.2386365,83.0143885 55.3603499,81.0071942 C55.4820634,79 54.325786,79.0647482 54.325786,79.0647482 C54.325786,79.0647482 56.5166273,77.8992806 57.7337613,75.3093525 C58.9508953,72.7194245 59.011752,70 59.011752,70 L61.3243067,71.618705 C61.3243067,71.618705 62.480584,78.028777 60.6548829,81.0719424 C58.8291819,84.1151079 53.5955056,88 53.5955056,88 Z" id="Shape" fill="#C9C9C9"></path>
                <path d="M40.3971452,75.1740198 C40.0787901,74.917157 41.9889211,76.5225492 42.8166445,79.2196082 C43.5806969,81.9166671 43.77171,82.4303926 42.9439866,84.6779417 C42.1162631,86.9254908 42.1162631,89.2372556 40.3971452,88.9803928 C38.6780273,88.7235301 34.9214363,89.1730399 31.4195295,84.8063731 C27.8539516,80.3754906 27.6629385,73.054902 29.3183853,72.2200981 C30.9738322,71.3852941 32.8839632,71 32.8839632,71 L40.3971452,75.1740198 Z" id="Shape" fill="#FFFFFF"></path>
                <g id="Group" transform="translate(32.359551, 67.000000)">
                    <path d="M26.47792,1.7952381 C26.0334466,0.804761905 25.0810034,0.123809524 23.9380716,0.123809524 L23.9380716,1.60952381 C23.9380716,1.60952381 19.4298406,4.14761905 13.524693,4.14761905 L19.6203292,12.5047619 C22.2236739,11.0809524 24.065064,9.5952381 25.271492,8.2952381 C26.9223935,6.56190476 27.4303632,4.02380952 26.47792,1.7952381 Z" id="Shape" fill="#FFFFFF"></path>
                    <path d="M19.7473217,7.55238095 C19.4933368,6.93333333 19.8743141,6.19047619 20.5092762,5.94285714 C21.9061928,5.44761905 23.9380716,4.51904762 24.954011,3.52857143 C26.3509276,2.1047619 25.3349882,1.17619048 25.3349882,1.17619048 C25.3349882,1.17619048 27.9383329,3.46666667 26.6684087,5.81904762 C25.7794617,7.49047619 19.6203292,12.4428571 19.6203292,12.4428571 C19.6203292,12.4428571 20.763261,10.152381 19.7473217,7.55238095 Z" id="Shape" fill="#C9C9C9"></path>
                    <path d="M3.11131435,0.185714286 C2.03187876,0.185714286 1.01593938,0.804761905 0.5714659,1.85714286 C-0.380977267,4.08571429 0.126992422,6.62380952 1.77789391,8.35714286 C2.98432192,9.5952381 4.76221583,11.0809524 7.4290567,12.5666667 L13.524693,4.20952381 C7.55604912,4.20952381 3.11131435,1.67142857 3.11131435,1.67142857 L3.11131435,0.185714286 Z" id="Shape" fill="#FFFFFF"></path>
                </g>
                <path d="M56.5640725,69.4173228 C56.5640725,69.4173228 50.5059626,72 45.8158131,72 C41.0605225,72 35.3932584,69.480315 35.3932584,69.480315 L35.3932584,64 L56.6292135,64 L56.6292135,69.4173228 L56.5640725,69.4173228 Z" id="Shape" fill="#F2C2A0"></path>
                <path d="M70.4538967,47.0487805 C69.4259616,44.0609756 66.9913786,44 66.9913786,44 L64.7191011,54 C64.7191011,54 65.7470362,54 66.504462,54 C69.4800635,54 71.6441373,50.402439 70.4538967,47.0487805 Z" id="Shape" fill="#F2C2A0"></path>
                <path d="M45.5554324,19.0002375 C45.5554324,19.0002375 38.0063587,18.8745971 31.2889627,24.4027754 C24.6355418,29.8681335 20.4131786,40.6103892 25.5311946,53.3000713 C31.3529379,67.685899 41.5889699,68 45.4914572,68 C49.7777956,68 59.6299764,67.6230788 65.4517197,53.3000713 C70.6337109,40.6103892 66.3473725,29.8681335 59.6939516,24.4027754 C53.104506,18.8745971 45.5554324,19.0002375 45.5554324,19.0002375" id="Shape" fill="#FDE4D2"></path>
                <path d="M23.3233991,41 C24.2330085,38.0165149 27.4816135,31.8668825 30.6652465,29.1269472 C33.8488795,26.3870119 34.4986005,21.5769034 31.1200512,23.4035269 C27.741502,25.2301504 24.4279248,28.2136354 24.4279248,28.2136354 L23.258427,34.6068177 L23.3233991,41 Z" id="Shape" fill="#F2C2A0"></path>
                <path d="M38.5714286,29.7206478 C38.5072231,29.9635628 37.4157303,31.4817814 37.4157303,31.4817814 L41.2680578,33 C41.2680578,33 43.3226324,30.8137652 44.2215088,28.0809717 C45.1203852,25.3481781 45.505618,20.5506073 45.505618,20.5506073 C45.505618,20.5506073 44.0930979,18 43.5794543,18 C43.0658106,18 41.8459069,20.5506073 41.8459069,20.5506073 L38.5714286,29.7206478 Z" id="Shape" fill="#F2C2A0"></path>
                <path d="M31.3756453,29.7863248 C31.3756453,29.7863248 31.3141512,30.4444444 31.3756453,31.2222222 C31.4371394,32 31.4371394,32 31.4371394,32 L36.2951716,31.9401709 C36.2951716,31.9401709 36.8486183,28.3504274 38.1399939,26.1965812 C39.4313696,24.042735 41.4606742,22.4871795 41.4606742,22.4871795 L40.4152748,18 L31.8061039,25.7777778 L31.3756453,29.7863248 Z" id="Shape" fill="#F2C2A0"></path>
                <path d="M61.6853933,29.7399103 L54.3351525,32 C54.3351525,32 49.5505618,29.8026906 49.5505618,24.9686099 C49.5505618,20.1345291 53.5030498,18 53.5030498,18 L61.6853933,29.7399103 Z" id="Shape" fill="#F2C2A0"></path>
                <path d="M60.84417,27.3629656 C60.84417,27.3629656 60.9089766,27.4247252 61.1033965,27.6100042 C61.7514627,28.2893602 63.6308549,30.3891879 64.9917941,33.8477277 C66.741573,38.1091428 66.741573,42 66.741573,42 C66.741573,42 65.5102471,37.7385849 62.917982,36.6269114 C60.3905236,35.5152379 59.8720705,35.3917186 59.8720705,35.3917186 C59.8720705,35.3917186 60.0016838,32.5507753 57.9278717,28.7216777 C56.5021259,25.9424939 60.84417,27.3629656 60.84417,27.3629656 Z" id="Shape" fill="#F2C2A0"></path>
                <path d="M41.884059,44 C41.884059,44.0662983 41.884059,44.198895 41.884059,44.2651934 C41.884059,49.4364641 37.9917566,53.6132597 33.1727156,53.6132597 C30.8867603,53.6132597 28.8479352,52.6850829 27.3033708,51.160221 C28.6008049,54.0110497 31.3192383,56 34.4701497,56 C38.8567127,56 42.4401021,52.1546961 42.4401021,47.4475138 C42.5636673,46.1878453 42.316537,44.9944751 41.884059,44 Z" id="Shape" fill="#F2C2A0"></path>
                <path d="M53.0813178,65 C53.0813178,65 58.4203009,62.7043796 61.2397639,57.4306569 C64.0592268,52.1569343 64.7191011,48 64.7191011,48 C64.7191011,48 63.1593982,50.9781022 59.7400495,51.8467153 C56.3806894,52.7153285 51.8215578,51.4124088 50.5617978,49.6131387 C50.5617978,49.6131387 51.7615692,52.7153285 55.6008379,54.2043796 C57.9403923,55.0729927 59.6800609,54.9489051 59.6800609,54.9489051 C59.6800609,54.9489051 59.0201866,57.6167883 57.4004951,59.9744526 C55.3608836,62.8905109 53.0813178,65 53.0813178,65 Z" id="Shape" fill="#F2C2A0"></path>
                <path d="M27.478277,49 L39.4382022,36.9020882 C39.4382022,36.9020882 33.8440437,34.5605568 29.9860033,37.4224285 C26.1279629,40.2843001 25.2920541,45.487703 27.478277,49 Z" id="Shape" fill="#FFFFFF"></path>
                <path d="M49.7108974,49 L61.6853933,36.9020882 C61.6853933,36.9020882 56.0844194,34.5605568 52.2216788,37.4224285 C48.4233172,40.2843001 47.5220111,45.487703 49.7108974,49 Z" id="Shape" fill="#FFFFFF"></path>
                <path d="M23.0429076,44 C23.0429076,44 20.6411609,44.0609756 19.5494578,47.0487805 C18.3485844,50.3414634 20.5319906,54 23.4795888,54 C24.243781,54 25.2808989,54 25.2808989,54" id="Shape" fill="#FDE4D2"></path>
                <path d="M45,89 C20.2183099,89 0,69.006338 0,44.5 C0,19.993662 20.2183099,0 45,0 C69.7816901,0 90,19.993662 90,44.5 C90,69.006338 69.7816901,89 45,89 Z M45,1.25352113 C20.915493,1.25352113 1.26760563,20.6830986 1.26760563,44.5 C1.26760563,68.3169014 20.915493,87.7464789 45,87.7464789 C69.084507,87.7464789 88.7323944,68.3169014 88.7323944,44.5 C88.7323944,20.6830986 69.084507,1.25352113 45,1.25352113 Z" id="Shape" fill="#4D5052"></path>
                <path d="M34.3820225,53 C29.332769,53 25.2808989,48.9315068 25.2808989,44 C25.2808989,39.0684932 29.3951054,35 34.3820225,35 C39.431276,35 43.4831461,39.0684932 43.4831461,44 C43.4831461,48.9315068 39.3689395,53 34.3820225,53 Z M34.3820225,36.1712329 C30.0184701,36.1712329 26.5276281,39.6849315 26.5276281,43.9383562 C26.5276281,48.1917808 30.0184701,51.7671233 34.3820225,51.7671233 C38.7455749,51.7671233 42.2364168,48.2534247 42.2364168,44 C42.2364168,39.7465753 38.6832384,36.1712329 34.3820225,36.1712329 Z" id="Shape" fill="#4D5052"></path>
                <path d="M57.6404494,53 C52.5911959,53 48.5393258,48.9315068 48.5393258,44 C48.5393258,39.0684932 52.6535324,35 57.6404494,35 C62.6897029,35 66.741573,39.0684932 66.741573,44 C66.741573,48.9315068 62.6897029,53 57.6404494,53 Z M57.6404494,36.1712329 C53.276897,36.1712329 49.7860551,39.6849315 49.7860551,43.9383562 C49.7860551,48.1917808 53.3392335,51.7054795 57.6404494,51.7054795 C61.9416654,51.7054795 65.4948438,48.1917808 65.4948438,43.9383562 C65.4948438,39.6849315 62.0040018,36.1712329 57.6404494,36.1712329 Z" id="Shape" fill="#4D5052"></path>
                <path d="M44.0680695,44 C43.8384988,44 43.5515353,43.8846154 43.4941426,43.6923077 C43.4367499,43.5 43.608928,43.2692308 43.8958915,43.2307692 C45.6176723,42.9230769 47.4542385,42.9230769 49.1186266,43.2307692 C49.4055901,43.2692308 49.6351609,43.5 49.5203755,43.6923077 C49.4629828,43.8846154 49.1186266,44.0384615 48.8316632,43.9615385 C47.2820604,43.6923077 45.675065,43.7307692 44.1254622,43.9615385 C44.1254622,44 44.0680695,44 44.0680695,44 Z" id="Shape" fill="#4D5052"></path>
                <ellipse id="Oval" fill="#4D5052" cx="57.1348315" cy="43.5" rx="2.52808989" ry="2.5"></ellipse>
                <ellipse id="Oval" fill="#4D5052" cx="33.8764045" cy="43.5" rx="2.52808989" ry="2.5"></ellipse>
                <path d="M45.5281615,40 C45.4637515,40 45.3993416,40 45.3993416,39.9368656 C45.2705217,39.8737312 45.2061118,39.6843281 45.2705217,39.494925 L47.6536893,35.1386527 L43.7890933,35.1386527 C43.6602734,35.1386527 43.5314535,35.0755183 43.5314535,34.9492496 C43.4670436,34.8229808 43.4670436,34.6967121 43.5314535,34.6335777 L46.4299005,30.1510367 C46.4943105,30.0247679 46.7519502,29.9616335 46.8807701,30.0247679 C47.0095899,30.0879023 47.0739999,30.3404398 47.0095899,30.4667086 L44.4331926,34.4441745 L48.2333787,34.4441745 C48.3621985,34.4441745 48.4266085,34.5073089 48.4910184,34.5704433 C48.5554283,34.6967121 48.5554283,34.7598464 48.4910184,34.8861152 L45.8502111,39.6843281 C45.7858012,39.9368656 45.6569813,40 45.5281615,40 Z" id="Shape" fill="#4D5052"></path>
                <path d="M45.505618,58 C43.4154654,58 41.5212645,56.87435 40.5415055,55.0203382 C40.3455537,54.6892646 40.4761882,54.2919764 40.8027746,54.0933323 C41.1293609,53.8946882 41.5212645,54.0271176 41.7172164,54.3581911 C42.5010236,55.7487 43.9380035,56.6757059 45.505618,56.6757059 C47.0732324,56.6757059 48.5755296,55.8149147 49.2940196,54.3581911 C49.4899714,54.0271176 49.881875,53.8946882 50.2084614,54.0933323 C50.5350477,54.2919764 50.6656823,54.6892646 50.4697305,55.0203382 C49.4899714,56.87435 47.5957706,58 45.505618,58 Z" id="Shape" fill="#4D5052"></path>
                <path d="M69.9879452,44 C69.9879452,44 69.9879452,44 69.9879452,44 L65.5689147,43.9032258 C65.1156808,43.9032258 64.7191011,43.2258065 64.7191011,42.4516129 C64.7191011,41.6774194 65.1156808,41 65.5689147,41 C65.5689147,41 65.5689147,41 65.5689147,41 L69.9312909,41.0967742 C70.3845248,41.0967742 70.7811045,41.7741935 70.7811045,42.5483871 C70.8377587,43.4193548 70.4411791,44 69.9879452,44 Z" id="Shape" fill="#4D5052"></path>
                <path d="M67.3774143,55 C67.3774143,55 67.3774143,55 67.3774143,55 L65.3373135,55 C64.9663861,55 64.7191011,54.7391304 64.7191011,54.3478261 C64.7191011,53.9565217 64.9663861,53.6956522 65.3373135,53.6956522 L67.3774143,53.6956522 C68.7374816,53.6956522 69.9739063,52.9782609 70.7775824,51.7391304 C71.6430798,50.3695652 71.8285435,48.673913 71.2721523,47.173913 C70.2211913,44.4347826 67.9956267,44.3043478 67.8719842,44.3043478 C67.5628781,44.3043478 67.2537719,43.9782609 67.2537719,43.6521739 C67.2537719,43.326087 67.5628781,43 67.8719842,43 C67.9956267,43 71.0248674,43.1304348 72.3849346,46.6521739 C73.1267895,48.5434783 72.8795045,50.6956522 71.7667222,52.3913043 C70.7775824,54.0869565 69.108409,55 67.3774143,55 Z" id="Shape" fill="#4D5052"></path>
                <path d="M46.0607845,69 C36.4017246,69 29.7293476,64.0686642 25.5988286,53.9563046 C20.0702877,40.3483146 25.2810963,29.6117353 31.4451017,24.4931336 C38.1174786,19 45.5524129,19 45.997238,19 C46.4420632,19 53.8769975,19 60.5493744,24.4931336 C66.7133797,29.5493134 71.9877348,40.3483146 66.3956475,53.9563046 C60.3587351,69 50.0006642,69 46.0607845,69 Z M45.997238,20.2484395 C45.6159594,20.2484395 38.4987573,20.3108614 32.2712055,25.4294632 C26.4249324,30.2359551 21.4683095,40.4731586 26.7426646,53.4569288 C32.5253913,67.6891386 42.6928228,67.6891386 45.997238,67.6891386 C49.682932,67.6891386 59.4690848,67.6891386 65.2518115,53.4569288 C70.5261666,40.4731586 65.5695437,30.2359551 59.7232706,25.4294632 C53.4321723,20.1860175 46.1243309,20.2484395 45.997238,20.2484395 C46.0607845,20.2484395 46.0607845,20.2484395 45.997238,20.2484395 C46.0607845,20.2484395 46.0607845,20.2484395 45.997238,20.2484395 Z" id="Shape" fill="#4D5052"></path>
                <path d="M20.0640554,44 C19.6104169,44 19.2134831,43.3225806 19.2134831,42.5483871 C19.2134831,41.7741935 19.6104169,41.0967742 20.0640554,41.0967742 L24.4303266,41 C24.4303266,41 24.4303266,41 24.4303266,41 C24.8839651,41 25.2808989,41.6774194 25.2808989,42.4516129 C25.2808989,43.2258065 24.8839651,43.9032258 24.4303266,43.9032258 L20.0640554,44 C20.0640554,44 20.0640554,44 20.0640554,44 Z" id="Shape" fill="#4D5052"></path>
                <path d="M25.6765726,55 L23.6452174,55 C21.9216433,55 20.2596254,54.0163934 19.2131697,52.442623 C18.1051578,50.7377049 17.9204891,48.5737705 18.5976075,46.6721311 C19.9518443,43.1311475 22.968099,43 23.0912115,43 C23.3989926,43 23.7067737,43.2622951 23.7067737,43.6557377 C23.7067737,44.0491803 23.4605488,44.3114754 23.0912115,44.3114754 C22.968099,44.3114754 20.7520752,44.442623 19.7056194,47.1967213 C19.1516135,48.704918 19.3362821,50.4098361 20.1980692,51.7868852 C20.9983,53.0327869 22.2294244,53.7540984 23.5836612,53.7540984 L25.6765726,53.7540984 C26.04591,53.7540984 26.2921348,54.0163934 26.2921348,54.4098361 C26.2921348,54.8032787 26.04591,55 25.6765726,55 Z" id="Shape" fill="#4D5052"></path>
                <path d="M66.0170126,15.9160774 C58.4791578,8.20806242 45.5114923,10.2429784 45.5114923,10.2429784 C45.5114923,10.2429784 32.5438268,8.20806242 25.005972,15.9160774 C15.360073,25.7823365 18.6179594,34.6003056 19.1928805,36.5118933 C19.7678016,38.3618169 21.1731644,42 21.1731644,42 L21.9397259,41.4450229 C22.1952464,41.7533435 22.4507669,42 22.8340477,42 L24.1116502,41.1367023 C24.1116502,41.1367023 24.1755303,40.2117405 24.4310508,37.9301681 C24.6226912,36.5735575 25.1976123,34.4153133 25.7086533,32.8737103 C26.028054,32.2570691 26.4752148,31.5170997 27.1140161,30.7154661 C28.5193789,28.9272066 29.4775807,27.9405807 30.116382,27.3856036 L31.3939845,25.7823365 C29.7331012,29.3588555 30.116382,31.0854508 30.116382,31.0854508 L35.2267921,31.0854508 C35.2267921,31.0854508 35.9294734,27.6322601 37.7819971,24.8573747 C39.1234797,22.8841229 39.9539214,21.7741687 40.3372021,21.3425199 L40.4010822,23.9324129 C40.2094419,27.2006113 37.9736375,29.7288402 37.9736375,29.7288402 L41.4870444,31.0854508 C41.4870444,31.0854508 43.850609,27.6322601 44.36165,24.9190389 C44.8088109,22.5758023 44.9365712,20.7875428 44.9365712,19.6775887 C45.3198519,21.2191917 46.405814,24.980703 47.9389371,27.1389472 C49.8553408,29.9138325 51.8995048,30.5921379 51.8995048,30.5921379 L56.1155931,29.6055119 C56.1155931,29.6055119 52.0272651,27.0156189 52.3466657,21.3425199 C52.7299465,21.7125046 57.073795,25.6590083 58.095877,29.112199 L61.7370442,26.7689624 C61.7370442,26.7689624 62.9507666,27.3856036 65.5059716,30.653802 C66.1447729,31.4554355 66.5919337,32.195405 66.9113344,32.8120462 C67.4223754,34.3536492 68.0611766,36.5118933 68.1889369,37.868504 C68.4444574,40.1500764 68.5083375,41.0750382 68.5083375,41.0750382 L69.78594,41.9383359 C69.78594,41.9383359 71.1913028,38.3001528 71.7662239,36.4502292 C72.4050252,34.6003056 75.6629116,25.7206724 66.0170126,15.9160774 Z" id="Shape" fill="#4D5052"></path>
                <g id="Group" transform="translate(17.191011, 70.000000)" fill="#4D5052">
                    <path d="M42.565255,9.77142857 C44.5921719,5.78571429 42.565255,0.192857143 42.565255,0.192857143 L57.1337202,7.84285714 C57.1337202,7.84285714 47.8859118,16.2 36.4845043,17.8714286 C36.4845043,17.8714286 40.1582911,14.5285714 42.565255,9.77142857 Z" id="Shape"></path>
                    <path d="M14.8218299,9.77142857 C12.794913,5.78571429 14.8218299,0.192857143 14.8218299,0.192857143 L0.253364613,7.84285714 C0.253364613,7.84285714 9.50117298,16.2 20.9025806,17.8714286 C20.8392394,17.8714286 17.2287937,14.5285714 14.8218299,9.77142857 Z" id="Shape"></path>
                </g>
                <path d="M51.9874217,81 C51.8033786,81 51.6193355,80.940239 51.4966402,80.7609562 L45.6072622,72.6932271 C45.4845668,72.5139442 45.4845668,72.2749004 45.5459145,72.0956175 C45.6686098,71.9163347 45.8526529,71.7968127 46.0980437,71.7968127 C50.7604679,71.7968127 54.5026768,70.123506 55.5455875,69.5856574 L55.5455875,66.5976096 C55.5455875,66.2390438 55.7909783,66 56.1590644,66 C56.5271505,66 56.7725413,66.2390438 56.7725413,66.5976096 L56.7725413,67.9721116 C57.815452,68.1513944 58.7356673,68.8685259 59.1651011,69.8844622 C60.1466641,72.2151394 59.6558826,74.9641434 57.8767997,76.8167331 C56.4658028,78.310757 54.5640245,79.7450199 52.2941601,81 C52.2328124,81 52.110117,81 51.9874217,81 Z M47.2636497,72.9322709 L52.1714647,79.625498 C54.1345907,78.4900398 55.7296306,77.2948207 56.9565843,75.9800797 C58.4289288,74.4860558 58.797015,72.2151394 57.999495,70.3027888 C57.7541043,69.7649402 57.3246705,69.3466135 56.7725413,69.1673307 L56.7725413,69.8844622 C56.7725413,70.123506 56.6498459,70.3027888 56.4658028,70.4223108 C56.2817598,70.5418327 52.4782032,72.6334661 47.2636497,72.9322709 Z" id="Shape" fill="#4D5052"></path>
                <path d="M39.0094292,81 C38.8869637,81 38.825731,81 38.7032656,80.9404762 C36.4376553,79.6904762 34.6006739,78.3214286 33.1310888,76.7738095 C31.3553402,74.9285714 30.8654785,72.1904762 31.8452019,69.8690476 C32.2738308,68.8571429 33.1923215,68.1428571 34.2332776,67.9642857 L34.2332776,66.5952381 C34.2332776,66.2380952 34.4782085,66 34.8456047,66 C35.213001,66 35.4579319,66.2380952 35.4579319,66.5952381 L35.4579319,69.5714286 C36.498888,70.1071429 40.2340834,71.7738095 44.8877695,71.7738095 C45.1327004,71.7738095 45.3163985,71.8928571 45.4388639,72.0714286 C45.5613293,72.25 45.5000966,72.4880952 45.3776312,72.6666667 L39.4992909,80.702381 C39.4380581,80.9404762 39.25436,81 39.0094292,81 Z M34.2945103,69.2142857 C33.7434159,69.3928571 33.2535542,69.8095238 33.0698561,70.3452381 C32.2738308,72.25 32.7024598,74.452381 34.1108122,76 C35.3354664,77.3095238 36.9887497,78.5595238 38.8869637,79.6309524 L43.7855807,72.9642857 C38.5808002,72.6666667 34.784372,70.5833333 34.6006739,70.4642857 C34.4169758,70.3452381 34.2945103,70.1666667 34.2945103,69.9285714 L34.2945103,69.2142857 Z" id="Shape" fill="#4D5052"></path>
                <path d="M41.7884366,89 C41.7274575,89 41.7274575,89 41.6664785,89 C41.4835413,88.9312567 41.4225622,88.7250269 41.4835413,88.5875403 L43.9227034,81.2320086 C43.9836825,81.0257787 44.1666196,80.9570354 44.2885777,81.0257787 C44.4715149,81.094522 44.5324939,81.3007519 44.4715149,81.4382385 L42.0933318,88.7937701 C42.0323528,88.9312567 41.9713737,89 41.7884366,89 Z" id="Shape" fill="#4D5052"></path>
                <path d="M49.278306,89 C49.1538462,89 49.0293863,88.9294377 48.9671564,88.7883131 L46.5401901,81.4498346 C46.4779602,81.2381477 46.5401901,81.0970232 46.7268799,81.0264609 C46.9135696,80.9558986 47.0380294,81.0264609 47.1002593,81.2381477 L49.5272256,88.5766262 C49.5894555,88.7883131 49.5272256,88.9294377 49.3405359,89 C49.3405359,89 49.3405359,89 49.278306,89 Z" id="Shape" fill="#4D5052"></path>
                <path d="M47.1955369,82 L43.7531094,82 C43.5027511,82 43.2523927,81.8193251 43.1898031,81.5784253 L41.4998842,76.8206532 C41.374705,76.5195284 41.5624738,76.1581786 41.8754217,76.0377287 C42.1883697,75.9172787 42.5639072,76.0979536 42.6890864,76.3990784 L44.2538262,80.7352758 L46.8199994,80.7352758 L48.3221496,76.4593034 C48.4473287,76.1581786 48.7602767,75.9775037 49.1358142,76.0979536 C49.4487622,76.2184036 49.636531,76.5195284 49.5113518,76.8808781 L47.8840224,81.5784253 C47.6962537,81.8193251 47.5084849,82 47.1955369,82 Z" id="Shape" fill="#4D5052"></path>
                <path d="M21.2359551,27 C22.2023717,22.8559123 24.972766,19.1854346 28.5162937,16.8173845 C32.0598213,14.4493344 36.1187712,13.2061081 39.6622989,13.0285043 C43.2058265,12.8509005 44.494382,13.5613156 44.494382,13.5613156 C44.494382,13.5613156 37.0207601,14.6861394 29.4827103,18.8894283 C24.1996327,21.849491 21.2359551,27 21.2359551,27 Z" id="Shape" fill="#757575"></path>
            </g>
        </g>
    </g>
</svg>