<svg width="17px" height="12px" viewBox="0 0 17 12" version="1.1" xmlns="http://www.w3.org/2000/svg" xmlns:xlink="http://www.w3.org/1999/xlink">
    <!-- Generator: Sketch 51.2 (57519) - http://www.bohemiancoding.com/sketch -->
    <desc>Created with Sketch.</desc>
    <defs></defs>
    <g id="Symbols" stroke="none" stroke-width="1" fill="none" fill-rule="evenodd">
        <g id="Discovery-button" transform="translate(-110.000000, -14.000000)" fill="#000000" fill-rule="nonzero">
            <g id="arrow-pointing-to-right" transform="translate(110.000000, 14.000000)">
                <path d="M16.7684599,5.12516999 L11.7095478,0.224262465 C11.4008909,-0.0747541551 10.9003115,-0.0747541551 10.5916547,0.224262465 C10.2829345,0.523340347 10.2829345,1.00816262 10.5916547,1.30724051 L14.3011652,4.90089221 L0.790455023,4.90089221 C0.353934141,4.90089221 0,5.24377195 0,5.66665901 C0,6.08948481 0.353934141,6.43242581 0.790455023,6.43242581 L14.3011652,6.43242581 L10.5917811,10.0260775 C10.283061,10.3251554 10.283061,10.8099777 10.5917811,11.1090556 C10.7460779,11.258472 10.9484344,11.3333333 11.1507277,11.3333333 C11.3530209,11.3333333 11.5553142,11.258472 11.7096742,11.1090556 L16.7684599,6.20814803 C17.07718,5.90907015 17.07718,5.42424787 16.7684599,5.12516999 Z" id="Shape"></path>
            </g>
        </g>
    </g>
</svg>